{
  "variables": {
    "aws_access_key": "aws_access_key",
    "aws_secret_key": "aws_secret_key"
  },
  "builders": [
    {
      "type": "amazon-ebs",
      "access_key": "{{user `aws_access_key`}}",
      "secret_key": "{{user `aws_secret_key`}}",
      "region": "eu-central-1",
      "source_ami": "ami-8504fdea",
      "instance_type": "t2.micro",
      "ssh_username": "ubuntu",
      "ami_name": "video-processing-server {{timestamp}}"
    }
  ],
  "provisioners": [
    {
      "type": "shell",
      "inline": [
        "sleep 10",
        "sudo apt-get update",
        "sudo apt-get -y install software-properties-common",
        "sudo apt-add-repository ppa:ansible/ansible",
        "sudo apt-get update",
        "sudo apt-get -y install ansible",
        "sudo apt-get -y install python-pip",
        "sudo pip install requests"
      ]
    },
    {
      "type": "ansible-local",
      "playbook_file": "../ansible/site.yml",
      "role_paths": [
        "../ansible/roles/php",
        "../ansible/roles/nginx",
        "../ansible/roles/ffmpeg",
        "../ansible/roles/video_processing",
        "../ansible/roles/supervisor"
      ]
    }
  ]
}